Aggregate FastQC Reports for Multiple Samples — qc_aggregate • fastqcr
…
# Demo QC dir
qc.dir <- system.file("fastqc_results", package = "fastqcr")
qc.dir
#> [1] "/Users/kassambara/Documents/R/MyPackages/fastqcr/inst/fastqc_results"

# List of files in the directory
list.files(qc.dir)
#> [1] "S1_fastqc.zip" "S2_fastqc.zip" "S3_fastqc.zip" "S4_fastqc.zip"
#> [5] "S5_fastqc.zip"

# Aggregate the report
qc <- qc_aggregate(qc.dir, progressbar = FALSE)
qc
#> # A tibble: 60 x 7
#>    sample module                       status tot.seq  seq.length pct.gc pct.dup
#>  * <chr>  <chr>                        <chr>  <chr>    <chr>       <dbl>   <dbl>
#>  1 S1     Basic Statistics             PASS   50299587 35-76          48    17.2
#>  2 S1     Per base sequence quality    PASS   50299587 35-76          48    17.2
#>  3 S1     Per tile sequence quality    PASS   50299587 35-76          48    17.2
#>  4 S1     Per sequence quality scores  PASS   50299587 35-76          48    17.2
#>  5 S1     Per base sequence content    FAIL   50299587 35-76          48    17.2
#>  6 S1     Per sequence GC content      WARN   50299587 35-76          48    17.2
#>  7 S1     Per base N content           PASS   50299587 35-76          48    17.2
#>  8 S1     Sequence Length Distribution WARN   50299587 35-76          48    17.2
#>  9 S1     Sequence Duplication Levels  PASS   50299587 35-76          48    17.2
#> 10 S1     Overrepresented sequences    PASS   50299587 35-76          48    17.2
#> # … with 50 more rows
…
